# requires a unix compatible editor like NotePad++ 
###################################################
#                                                 #
#  AutoBouquets E2 - custom channel sort manager  #
#                                                 #
#  service data can be found in autobouquets.csv  #
#                                                 #
###################################################

#01 - Entertainment

01=101
01=102
01=103
01=104
01=105
01=106
01=107
01=108
01=109
01=110
01=111
01=112
01=113
01=114
01=115
01=116
01=117
01=118
01=119
01=120
01=121
01=122
01=123
01=124
01=125
01=126
01=127
01=128
01=129
01=130
01=131
01=132
01=133
01=134
01=135
01=136
01=137
01=138
01=139
01=140
01=141
01=143
01=144
01=145
01=146
01=147
01=148
01=149
01=150
01=151
01=152
01=153
01=154
01=155
01=156
01=157
01=158
01=159
01=160
01=161
01=163
01=164
01=165
01=166
01=167
01=168
01=169
01=170
01=172
01=173
01=174
01=175
01=176
01=177
01=179
01=180
01=181
01=182
01=183
01=184
01=185
01=186
01=187
01=189
01=190
01=191
01=192
01=193
01=194
01=195
01=196
01=197
01=198
01=199
01=200
01=203
01=206
01=209
01=210
01=211
01=212
01=215
01=217
01=218
01=219
01=221
01=224
01=225
01=226
01=227
01=232
01=234
01=237
01=238

01=240
01=241
01=242
01=243
01=244
01=245
01=246
01=247
01=248
01=249
01=250
01=251
01=252
01=253
01=254
01=255
01=256
01=257
01=258
01=259
01=260
01=261
01=262
01=263
01=264
01=265
01=266
01=267
01=268
01=269
01=270
01=271
01=272
01=273
01=274
01=275
01=276
01=277
01=278
01=279
01=280
01=281
01=282
01=284
01=285
01=286
01=287
01=288
01=289
01=290
01=291
01=292
01=293
01=294
01=295
01=296
01=297
01=298
01=299
01=300

#02 - Lifestyle and Culture

#03 - Movies

03=301
03=302
03=303
03=304
03=305
03=306
03=307
03=308
03=309
03=310
03=311
03=312
03=313
03=315
03=316
03=317
03=318
03=319
03=320
03=321
03=322
03=323
03=324
03=325
03=326
03=327
03=328
03=329
03=338
03=343
03=344
03=345
03=346
03=347
03=348
03=349

#04 - Music

04=350
04=351
04=352
04=353
04=354
04=355
04=356
04=357
04=358
04=359
04=360
04=361
04=362
04=363
04=364
04=365
04=366
04=367
04=368
04=369
04=370
04=371
04=372
04=373
04=374
04=375
04=376
04=377
04=378
04=379
04=380
04=381
04=382
04=383
04=384
04=385
04=387
04=388
04=389
04=390
04=391
04=392
04=393
04=394
04=395
04=396
04=397
04=398
04=399
04=400

#05 - Sports

05=401
05=402
05=403
05=404
05=405
05=406
05=410
05=411
05=413
05=414
05=415
05=416
05=417
05=418
05=419
05=420
05=421
05=422
05=423
05=424
05=425
05=428
05=429
05=430
05=431
05=432
05=434
05=437
05=438
05=440
05=441
05=442
05=444
05=445
05=446
05=447
05=448
05=449
05=450
05=451
05=452
05=453
05=454
05=455
05=456
05=457
05=458
05=459
05=460
05=461
05=462
05=463
05=464
05=465
05=466
05=467
05=468
05=469
05=470
05=471
05=472
05=473
05=474
05=475
05=476
05=477
05=478
05=479
05=480
05=481
05=482
05=483
05=484
05=485
05=486
05=487
05=488
05=489
05=490
05=491
05=492
05=493
05=494
05=495
05=496
05=497
05=498
05=499
05=500

#06 - News

06=501
06=502
06=503
06=504
06=505
06=506
06=507
06=508
06=509
06=510
06=511
06=512
06=513
06=514
06=515
06=517
06=519
06=570
06=571
06=572
06=573
06=574
06=575


#07 - Documentaries

07=520
07=521
07=522
07=523
07=524
07=525
07=526
07=527
07=528
07=529
07=530
07=531
07=532
07=533
07=534
07=535
07=536
07=537
07=538
07=539
07=540
07=541
07=542
07=546
07=547
07=548
07=549
07=550
07=551
07=552
07=553
07=554
07=556
07=557
07=558
07=559
07=560
07=564
07=565
07=566
07=567
07=568
07=569
07=570
07=571
07=572
07=573
07=574
07=575
07=576
07=577
07=578
07=579

#08 - Religious

08=580
08=581
08=582
08=583
08=584
08=585
08=586
08=587
08=588
08=589
08=590
08=591
08=592
08=593
08=594
08=595
08=596
08=597
08=598
08=599

#09 - Kids

09=600
09=601
09=602
09=603
09=604
09=605
09=606
09=607
09=608
09=609
09=610
09=611
09=612
09=613
09=614
09=615
09=616
09=617
09=618
09=619
09=620
09=621
09=623
09=624
09=625
09=626
09=627
09=629
09=630
09=633
09=635
09=636
09=637
09=638
09=639
09=641
09=642
09=643
09=644
09=645
09=646
09=647
09=648
09=649

#0a - Shopping

0a=650
0a=651
0a=652
0a=653
0a=654
0a=655
0a=656
0a=657
0a=658
0a=659
0a=660
0a=661
0a=662
0a=663
0a=664
0a=665
0a=666
0a=667
0a=668
0a=669
0a=670
0a=671
0a=672
0a=673
0a=674
0a=675
0a=676
0a=677
0a=678
0a=679
0a=680
0a=681
0a=682
0a=683
0a=684
0a=685
0a=686
0a=687
0a=688
0a=689
0a=690
0a=691
0a=692
0a=693
0a=694
0a=695
0a=696
0a=697
0a=698
0a=699

#0b - Sky Box Office

0b=700
0b=701
0b=702
0b=703
0b=704
0b=705
0b=706
0b=707
0b=708
0b=709
0b=710
0b=711
0b=712
0b=713
0b=714
0b=715
0b=716
0b=717
0b=718
0b=719
0b=720
0b=721
0b=722
0b=723
0b=724
0b=725
0b=726
0b=727
0b=728
0b=729
0b=730
0b=731
0b=732
0b=733
0b=734
0b=735
0b=736
0b=737
0b=738
0b=739
0b=740
0b=741
0b=742
0b=743
0b=744
0b=745
0b=746
0b=747
0b=748
0b=749
0b=750
0b=751
0b=752
0b=753
0b=754
0b=755
0b=756
0b=757
0b=758
0b=759
0b=760
0b=761
0b=762
0b=763
0b=764
0b=765
0b=766
0b=767
0b=768
0b=769
0b=770
0b=771
0b=772
0b=773
0b=774
0b=775
0b=776
0b=777
0b=778
0b=779

#0c - International

0c=780
0c=781
0c=782
0c=783
0c=784
0c=785
0c=786
0c=787
0c=788
0c=789
0c=790
0c=791
0c=792
0c=793
0c=794
0c=795
0c=796
0c=797
0c=798
0c=799
0c=800
0c=801
0c=802
0c=803
0c=804
0c=805
0c=806
0c=807
0c=808
0c=809
0c=810
0c=811
0c=812
0c=813
0c=814
0c=815
0c=816
0c=817
0c=818
0c=819
0c=820
0c=821
0c=822
0c=823
0c=824
0c=825
0c=826
0c=827
0c=828
0c=829
0c=830
0c=831
0c=832
0c=833
0c=834
0c=835
0c=836
0c=837
0c=838
0c=839
0c=840
0c=841
0c=842
0c=843
0c=844
0c=845
0c=846
0c=847
0c=848
0c=849
0c=850
0c=851
0c=852
0c=853
0c=854
0c=855
0c=856
0c=857
0c=858
0c=859
0c=860
0c=861
0c=862
0c=863
0c=864
0c=865
0c=866
0c=867
0c=868
0c=869
0c=870

#0d - Gaming and Dating

0d=871
0d=872
0d=873
0d=874
0d=875
0d=876
0d=877
0d=878
0d=879
0d=880

#0e - Specialist

0e=881
0e=882
0e=883
0e=884
0e=885
0e=886
0e=887
0e=888
0e=889
0e=890
0e=891
0e=892
0e=893
0e=894
0e=895
0e=896
0e=897
0e=898
0e=899

#0f - Adult

0f=900
0f=901
0f=902
0f=903
0f=904
0f=905
0f=906
0f=907
0f=908
0f=909
0f=910
0f=911
0f=912
0f=913
0f=914
0f=915
0f=916
0f=917
0f=918
0f=919
0f=920
0f=921
0f=922
0f=923
0f=924
0f=925
0f=926
0f=927
0f=928
0f=929
0f=930
0f=931
0f=932
0f=933
0f=934
0f=935
0f=936
0f=937
0f=938
0f=939
0f=940
0f=941
0f=942
0f=943
0f=944
0f=945
0f=946
0f=947
0f=948
0f=949

#10 - Other

10=950
10=951
10=952
10=953
10=954
10=955
10=956
10=957
10=958
10=959
10=960
10=961
10=962
10=963
10=964
10=965
10=966
10=967
10=968
10=969
10=970
10=971
10=972
10=973
10=974
10=975
10=976
10=977
10=978
10=979
10=980
10=981
10=982
10=983
10=984
10=985
10=986
10=987
10=988
10=989
10=990
10=991
10=992
10=993
10=994
10=995
10=996
10=997
10=998
10=999

